INDEX VERSION 1.3+D:\fsd57_module_3\2.AdvJava\Workspace2\.metadata\.plugins\org.eclipse.wst.jsdt.core\indexes
2889170302.index
1951817357.index
3756074463.index
2454960252.index
2756596819.index
3157523459.index
